…
Next use `imf_from_quandl()` to download and plot the data.

``` r
library(FromQuandl)
library(ggthemes)

ca <- imf_from_quandl(countries = 'g7', indicators = 'BCA_NGDPD', start_date = '2008-01-01')
ca
#> # A tibble: 105 x 6
#>    date       iso   country indicator  value name                         
#>    <date>     <fct> <fct>   <fct>      <dbl> <fct>                        
#>  1 2008-12-31 CAN   Canada  BCA_NGDPD  0.099 Current Account Balance, % o~
#>  2 2009-12-31 CAN   Canada  BCA_NGDPD -2.95  Current Account Balance, % o~
#>  3 2010-12-31 CAN   Canada  BCA_NGDPD -3.61  Current Account Balance, % o~
#>  4 2011-12-31 CAN   Canada  BCA_NGDPD -2.77  Current Account Balance, % o~
#>  5 2012-12-31 CAN   Canada  BCA_NGDPD -3.60  Current Account Balance, % o~
#>  6 2013-12-31 CAN   Canada  BCA_NGDPD -3.22  Current Account Balance, % o~
#>  7 2014-12-31 CAN   Canada  BCA_NGDPD -2.43  Current Account Balance, % o~
#>  8 2015-12-31 CAN   Canada  BCA_NGDPD -3.40  Current Account Balance, % o~
#>  9 2016-12-31 CAN   Canada  BCA_NGDPD -3.34  Current Account Balance, % o~
#> 10 2017-12-31 CAN   Canada  BCA_NGDPD -2.92  Current Account Balance, % o~
#> # ... with 95 more rows
…
The result is a `tibble` that it's ready to be used in `ggplot2`.

There is no need to restrict the download to only one indicator. The `indicators` argument supports lists and vectors of strings as well, but be aware that may be safe using `Quandl.api_key()` if you want to access too many series.

As a second example imagine that you want to downalod the poverty statistics from the World Bank for all countries in the Commonwealth of Independent States. Simply run

``` r
library(FromQuandl)

wb_from_quandl('cis', 'poverty') 
#> # A tibble: 270 x 4
#>    date       country indicator                                       value
#>    <date>     <fct>   <fct>                                           <dbl>
#>  1 1996-12-31 Albania Number of poor at $1.25 a day (PPP) (millions)  0.495
#>  2 2002-12-31 Albania Number of poor at $1.25 a day (PPP) (millions)  0.450
#>  3 2004-12-31 Albania Number of poor at $1.25 a day (PPP) (millions)  0.390
#>  4 2005-12-31 Albania Number of poor at $1.25 a day (PPP) (millions)  0.337
#>  5 2008-12-31 Albania Number of poor at $1.25 a day (PPP) (millions)  0.179
#>  6 2012-12-31 Albania Number of poor at $1.25 a day (PPP) (millions)  0.194
#>  7 1988-12-31 Algeria Number of poor at $1.25 a day (PPP) (millions) 16.4  
#>  8 1995-12-31 Algeria Number of poor at $1.25 a day (PPP) (millions) 18.5  
#>  9 2000-12-31 Angola  Number of poor at $1.25 a day (PPP) (millions) 61.6  
#> 10 2008-12-31 Angola  Number of poor at $1.25 a day (PPP) (millions) 56.8  
#> # ... with 260 more rows
```
…
